Untitled
…
Con respecto a los valores más bajos de propiedad en 2011, éstos eran CCAA pequeñas como las islas y Ceuta y Melilla, así como Cataluña y Madrid. Esta tendencia sí se mantiene en 2021, salvo Ceuta, que pasa a tener más porcentaje de propiedad y sale de las CCAA más bajas.

Alquiler. El alquiler sobresalía en 2011 en las CCAA de Melilla, Baleares, Cataluña, Madrid. En 2021, si bien Melilla sigue encabezando la lista, ha entrado entre las CCAA con mayor alquiler País Vasco, que parece ser el caso más dramático, Aragón o Comunitat Valenciana Además, en las CCAA con poca proproción de alquiler, éste ha aumentado pero poco; y cuanto más alquiler en 2011, más ha aumentado para 2021. T

Provincias

# Top provincias con más propiedad en 2021
top_propiedad_2021 <- jovenes_total %>%
  arrange(desc(Propiedad21Prov)) %>%
  distinct(Propiedad21Prov, .keep_all = TRUE) |> 
  select(Propiedad21Prov, PROV_LITERAL)

top_propiedad_2021

# A tibble: 50 × 2
   Propiedad21Prov PROV_LITERAL
             <dbl> <chr>       
 1            84.2 Jaén        
 2            79.8 Ciudad Real 
 3            79.7 Córdoba     
 4            78.8 Sevilla     
 5            78.6 Albacete    
 6            78.3 Cádiz       
 7            77.6 Salamanca   
 8            77.1 Ávila       
 9            77.1 Málaga      
10            76.9 Palencia    
# ℹ 40 more rows

# Top CCAA con más alquiler en 2021
top_alquiler_2021 <- jovenes_total %>%
  arrange(desc(Alquiler21Prov)) %>%
    distinct(Alquiler21Prov, .keep_all = TRUE) |> 
    select(Alquiler21Prov, PROV_LITERAL)

top_alquiler_2021

# A tibble: 51 × 2
   Alquiler21Prov PROV_LITERAL  
            <dbl> <chr>         
 1           33.3 Melilla       
 2           33.0 Barcelona     
 3           30.1 Girona        
 4           29.4 Madrid        
 5           28.5 Araba/Álava   
 6           28.1 Balears, Illes
 7           27.6 Lleida        
 8           25.3 Gipuzkoa      
 9           25.0 Zaragoza      
10           24.9 Tarragona     
# ℹ 41 more rows

# Top CCAA con más propiedad en 2011
top_propiedad_2011 <- jovenes_total %>%
  arrange(desc(Propiedad11Prov)) %>%
    distinct(Propiedad11Prov, .keep_all = TRUE) |> 
    select(Propiedad11Prov, PROV_LITERAL)

top_propiedad_2011

# A tibble: 51 × 2
   Propiedad11Prov PROV_LITERAL     
             <dbl> <chr>            
 1            84.3 Alicante/Alacant 
 2            83.7 Jaén             
 3            83.4 Araba/Álava      
 4            83.3 Valencia/València
 5            83.3 Ciudad Real      
 6            83.1 Bizkaia          
 7            83.1 Burgos           
 8            83.0 Gipuzkoa         
 9            83.0 Zamora           
10            82.9 Navarra          
# ℹ 41 more rows

# Top CCCAA con más alquiler en 2011
top_alquiler_2011 <- jovenes_total %>%
    distinct(Alquiler11Prov, .keep_all = TRUE) |> 
  arrange(desc(Alquiler11Prov)) %>%
    select(Alquiler11Prov, PROV_LITERAL)

top_propiedad_2021

# A tibble: 50 × 2
   Propiedad21Prov PROV_LITERAL
             <dbl> <chr>       
 1            84.2 Jaén        
 2            79.8 Ciudad Real 
 3            79.7 Córdoba     
 4            78.8 Sevilla     
 5            78.6 Albacete    
 6            78.3 Cádiz       
 7            77.6 Salamanca   
 8            77.1 Ávila       
 9            77.1 Málaga      
10            76.9 Palencia    
# ℹ 40 more rows

top_propiedad_2011

# A tibble: 51 × 2
   Propiedad11Prov PROV_LITERAL     
             <dbl> <chr>            
 1            84.3 Alicante/Alacant 
 2            83.7 Jaén             
 3            83.4 Araba/Álava      
 4            83.3 Valencia/València
 5            83.3 Ciudad Real      
 6            83.1 Bizkaia          
 7            83.1 Burgos           
 8            83.0 Gipuzkoa         
 9            83.0 Zamora           
10            82.9 Navarra          
# ℹ 41 more rows

top_alquiler_2021

# A tibble: 51 × 2
   Alquiler21Prov PROV_LITERAL  
            <dbl> <chr>         
 1           33.3 Melilla       
 2           33.0 Barcelona     
 3           30.1 Girona        
 4           29.4 Madrid        
 5           28.5 Araba/Álava   
 6           28.1 Balears, Illes
 7           27.6 Lleida        
 8           25.3 Gipuzkoa      
 9           25.0 Zaragoza      
10           24.9 Tarragona     
# ℹ 41 more rows

top_alquiler_2011

# A tibble: 51 × 2
   Alquiler11Prov PROV_LITERAL  
            <dbl> <chr>         
 1           23.0 Melilla       
 2           22.0 Balears, Illes
 3           21.3 Girona        
 4           21.2 Barcelona     
 5           19.1 Madrid        
 6           17.4 Ceuta         
 7           16.6 Lleida        
 8           15.0 Asturias      
 9           14.7 Palmas, Las   
10           14.5 Tarragona     
# ℹ 41 more rows
…
hipotecas <- jovenes11 |> 
  select(cusec,Hipoteca11Mun) |> 
  distinct(cusec, .keep_all = TRUE)

jovenes_total <- jovenes_total |> 
  left_join(hipotecas, by = "cusec")

jovenes_total |> 
  arrange(desc(Hipoteca11Mun)) %>%
  distinct(cusec, .keep_all = TRUE) |> 
  select(PROV_LITERAL, MUN_LITERAL, Hipoteca11Mun)

# A tibble: 543 × 3
   PROV_LITERAL       MUN_LITERAL   Hipoteca11Mun
   <chr>              <chr>                 <dbl>
 1 Madrid             Arroyomolinos          86.3
 2 Guadalajara        <NA>                   68.8
 3 Zamora             <NA>                   67.1
 4 Madrid             Valdemoro              66.7
 5 Cantabria          Piélagos               66.2
 6 Toledo             Illescas               66.1
 7 Tarragona          Vila-seca              65.4
 8 Balears, Illes     Marratxí               65.0
 9 Araba/Álava        <NA>                   64.5
10 Castellón/Castelló Onda                   63.6
# ℹ 533 more rows
…
# Por provincia
compra11 <- compra11 |> 
  group_by(CPRO) |> 
  mutate(
    Compra11Prov = round((sum(TENEN_VIV == "Compra") / n()) * 100, 2),
    Herencia11Prov = round((sum(TENEN_VIV == "Herencia o donación") / n()) * 100, 2),
    Alquiler11Prov = round((sum(TENEN_VIV == "Alquiler") / n()) * 100, 2),
    Otro11Prov = round((sum(TENEN_VIV == "Otro") / n()) * 100, 2)) |>   ungroup()

compra11 |> 
    distinct(cusec, .keep_all = TRUE) |> 
  arrange(desc(Compra11Mun)) |> 
    select(Compra11Mun, MUN_LITERAL, PROV_LITERAL, cusec)

# A tibble: 588 × 4
   Compra11Mun MUN_LITERAL          PROV_LITERAL      cusec
         <dbl> <chr>                <chr>             <chr>
 1        92.7 2001 <= 5000         Zamora            49992
 2        90.4 Arroyomolinos        Madrid            28015
 3        90.1 Petrer               Alicante/Alacant  03104
 4        89.7 Almansa              Albacete          02009
 5        89.6 Alcalá de Guadaíra   Sevilla           41004
 6        89.4 Martos               Jaén              23060
 7        89.2 Dos Hermanas         Sevilla           41038
 8        88.9 Paiporta             Valencia/València 46186
 9        88.4 Ibi                  Alicante/Alacant  03079
10        88.1 Morón de la Frontera Sevilla           41065
# ℹ 578 more rows

compra11 |> 
    distinct(cusec, .keep_all = TRUE) |> 
  arrange(desc(Herencia11Mun)) |> 
    select(Herencia11Mun, MUN_LITERAL, PROV_LITERAL, cusec)

# A tibble: 588 × 4
   Herencia11Mun MUN_LITERAL  PROV_LITERAL           cusec
           <dbl> <chr>        <chr>                  <chr>
 1          34.5 2001 <= 5000 Palmas, Las            35992
 2          28.6 <=2000       Palmas, Las            35991
 3          26.5 <=2000       Pontevedra             36991
 4          25.3 <=2000       Lugo                   27991
 5          21.7 <=2000       Santa Cruz de Tenerife 38991
 6          19.0 <=2000       Ourense                32991
 7          17.3 2001 <= 5000 Coruña, A              15992
 8          16.4 <=2000       Coruña, A              15991
 9          16.3 Redondela    Pontevedra             36045
10          16.2 2001 <= 5000 Lugo                   27992
# ℹ 578 more rows

compra11 |> 
    distinct(CPRO, .keep_all = TRUE) |> 
    arrange(desc(Compra11Prov)) |> 
    select(Compra11Prov, PROV_LITERAL)

# A tibble: 52 × 2
   Compra11Prov PROV_LITERAL     
          <dbl> <chr>            
 1         76.6 Cádiz            
 2         76.2 Alicante/Alacant 
 3         74.9 Araba/Álava      
 4         74.3 Cantabria        
 5         74.2 Gipuzkoa         
 6         74.2 Valencia/València
 7         74.1 Sevilla          
 8         73.4 Burgos           
 9         73.3 Córdoba          
10         73.2 Valladolid       
# ℹ 42 more rows
…
# Por provincia
compra21 <- compra21 |> 
  group_by(CPRO) |> 
  mutate(
    Propiedad21Prov = round((sum(TENEN_VIV == "Propiedad") / n()) * 100, 2),
    Alquiler21Prov = round((sum(TENEN_VIV == "Alquiler") / n()) * 100, 2),
    Otro21Prov = round((sum(TENEN_VIV == "Otro") / n()) * 100, 2)) |>   ungroup()

compra21 |> 
    distinct(cusec, .keep_all = TRUE) |> 
  arrange(desc(Propiedad21Mun)) |> 
    select(Propiedad21Mun, MUN_LITERAL, PROV_LITERAL, cusec)

# A tibble: 909 × 4
   Propiedad21Mun MUN_LITERAL       PROV_LITERAL cusec
            <dbl> <chr>             <chr>        <chr>
 1           91.3 Martos            Jaén         23060
 2           86.8 Andújar           Jaén         23005
 3           86.8 Campo de Criptana Ciudad Real  13028
 4           85.7 5001 <= 10000     Burgos       09993
 5           85.6 2001 <= 5000      Salamanca    37992
 6           85.1 Calasparra        Murcia       30013
 7           84.5 Aljaraque         Huelva       21002
 8           84.2 Jódar             Jaén         23053
 9           83.7 Carballiño, O     Ourense      32019
10           82.9 Torre del Campo   Jaén         23086
# ℹ 899 more rows

compra21 |> 
    distinct(CPRO, .keep_all = TRUE) |> 
    arrange(desc(Propiedad21Prov)) |> 
    select(Propiedad21Prov, PROV_LITERAL)

# A tibble: 52 × 2
   Propiedad21Prov PROV_LITERAL
             <dbl> <chr>       
 1            77.1 Jaén        
 2            69.5 Málaga      
 3            69.0 Córdoba     
 4            68.4 Cádiz       
 5            68.2 Ciudad Real 
 6            68.1 Sevilla     
 7            67.6 Huelva      
 8            65.9 Murcia      
 9            65.8 Albacete    
10            64.6 Badajoz     
# ℹ 42 more rows
…
# Top CCAA con más propiedad en 2011 NO FILTRO
top_propiedad_2011 <- jovenes_total %>%
  arrange(desc(Propiedad11Prov)) %>%
    distinct(Propiedad11Prov, .keep_all = TRUE) |> 
    select(Propiedad11Prov, PROV_LITERAL)

# Top provincias con más compra en 2011
top_compra_2011 <- compra11 %>%
  arrange(desc(Compra11Prov)) %>%
  distinct(Compra11Prov, .keep_all = TRUE) |> 
  select(Compra11Prov, PROV_LITERAL)

top_propiedad_2021_filtro

# A tibble: 52 × 2
   Propiedad21Prov PROV_LITERAL
             <dbl> <chr>       
 1            77.1 Jaén        
 2            69.5 Málaga      
 3            69.0 Córdoba     
 4            68.4 Cádiz       
 5            68.2 Ciudad Real 
 6            68.1 Sevilla     
 7            67.6 Huelva      
 8            65.9 Murcia      
 9            65.8 Albacete    
10            64.6 Badajoz     
# ℹ 42 more rows

top_propiedad_2021

# A tibble: 50 × 2
   Propiedad21Prov PROV_LITERAL
             <dbl> <chr>       
 1            84.2 Jaén        
 2            79.8 Ciudad Real 
 3            79.7 Córdoba     
 4            78.8 Sevilla     
 5            78.6 Albacete    
 6            78.3 Cádiz       
 7            77.6 Salamanca   
 8            77.1 Ávila       
 9            77.1 Málaga      
10            76.9 Palencia    
# ℹ 40 more rows

top_propiedad_2011_filtro

# A tibble: 52 × 2
   Compra11Prov PROV_LITERAL     
          <dbl> <chr>            
 1         76.6 Cádiz            
 2         76.2 Alicante/Alacant 
 3         74.9 Araba/Álava      
 4         74.3 Cantabria        
 5         74.2 Gipuzkoa         
 6         74.2 Valencia/València
 7         74.1 Sevilla          
 8         73.4 Burgos           
 9         73.3 Córdoba          
10         73.2 Valladolid       
# ℹ 42 more rows

top_propiedad_2011

# A tibble: 51 × 2
   Propiedad11Prov PROV_LITERAL     
             <dbl> <chr>            
 1            84.3 Alicante/Alacant 
 2            83.7 Jaén             
 3            83.4 Araba/Álava      
 4            83.3 Valencia/València
 5            83.3 Ciudad Real      
 6            83.1 Bizkaia          
 7            83.1 Burgos           
 8            83.0 Gipuzkoa         
 9            83.0 Zamora           
10            82.9 Navarra          
# ℹ 41 more rows

top_compra_2011

# A tibble: 52 × 2
   Compra11Prov PROV_LITERAL     
          <dbl> <chr>            
 1         76.6 Cádiz            
 2         76.2 Alicante/Alacant 
 3         74.9 Araba/Álava      
 4         74.3 Cantabria        
 5         74.2 Gipuzkoa         
 6         74.2 Valencia/València
 7         74.1 Sevilla          
 8         73.4 Burgos           
 9         73.3 Córdoba          
10         73.2 Valladolid       
# ℹ 42 more rows
…
# Top municipios con más compra en 2011
top_compra_2011 <- compra11 %>%
  arrange(desc(Compra11Mun)) %>%
  distinct(Compra11Mun, .keep_all = TRUE) |> 
  select(Compra11Mun, PROV_LITERAL)

# Top provincias con más herencia en 2011
top_compra_2021 <- compra11 %>%
  arrange(desc(Herencia11Mun)) %>%
  distinct(Herencia11Mun, .keep_all = TRUE) |> 
  select(Herencia11Mun, PROV_LITERAL)

top_propiedad_2021_filtro

# A tibble: 768 × 2
   Propiedad21Mun PROV_LITERAL
            <dbl> <chr>       
 1           91.3 Jaén        
 2           86.8 Jaén        
 3           86.8 Ciudad Real 
 4           85.7 Burgos      
 5           85.6 Salamanca   
 6           85.1 Murcia      
 7           84.5 Huelva      
 8           84.2 Jaén        
 9           83.7 Ourense     
10           82.9 Jaén        
# ℹ 758 more rows

top_propiedad_2021

# A tibble: 502 × 2
   Propiedad21Mun PROV_LITERAL    
            <dbl> <chr>           
 1           92.1 Jaén            
 2           91.7 Salamanca       
 3           88.1 Alicante/Alacant
 4           87.8 Jaén            
 5           87.6 Málaga          
 6           87.6 Salamanca       
 7           87.4 Sevilla         
 8           87.3 León            
 9           86.8 Balears, Illes  
10           86.8 Málaga          
# ℹ 492 more rows

top_propiedad_2011_filtro

# A tibble: 52 × 2
   Compra11Prov PROV_LITERAL     
          <dbl> <chr>            
 1         76.6 Cádiz            
 2         76.2 Alicante/Alacant 
 3         74.9 Araba/Álava      
 4         74.3 Cantabria        
 5         74.2 Gipuzkoa         
 6         74.2 Valencia/València
 7         74.1 Sevilla          
 8         73.4 Burgos           
 9         73.3 Córdoba          
10         73.2 Valladolid       
# ℹ 42 more rows

top_propiedad_2011

# A tibble: 476 × 2
   Propiedad11Mun PROV_LITERAL     
            <dbl> <chr>            
 1           94.3 Zamora           
 2           92.6 Alicante/Alacant 
 3           92   Jaén             
 4           91.7 Valencia/València
 5           91.3 Málaga           
 6           91.0 Madrid           
 7           90.9 Soria            
 8           90.9 Sevilla          
 9           90.9 Jaén             
10           90.8 Valencia/València
# ℹ 466 more rows

top_compra_2011

# A tibble: 541 × 2
   Compra11Mun PROV_LITERAL     
         <dbl> <chr>            
 1        92.7 Zamora           
 2        90.4 Madrid           
 3        90.1 Alicante/Alacant 
 4        89.7 Albacete         
 5        89.6 Sevilla          
 6        89.4 Jaén             
 7        89.2 Sevilla          
 8        88.9 Valencia/València
 9        88.4 Alicante/Alacant 
10        88.1 Sevilla          
# ℹ 531 more rows

top_compra_2011

# A tibble: 541 × 2
   Compra11Mun PROV_LITERAL     
         <dbl> <chr>            
 1        92.7 Zamora           
 2        90.4 Madrid           
 3        90.1 Alicante/Alacant 
 4        89.7 Albacete         
 5        89.6 Sevilla          
 6        89.4 Jaén             
 7        89.2 Sevilla          
 8        88.9 Valencia/València
 9        88.4 Alicante/Alacant 
10        88.1 Sevilla          
# ℹ 531 more rows
…
Por municipio

# Propiedad
compra_total_mun <- compra_total_mun |> 
  mutate(
    PropiedadDifMun = Propiedad21Mun - Compra11Mun)

compra_total_mun %>%
    distinct(PropiedadDifMun, .keep_all = TRUE) |> 
  arrange(desc(PropiedadDifMun)) %>%
    select(PropiedadDifMun, MUN_LITERAL, PROV_LITERAL, CMUN)

# A tibble: 529 × 4
   PropiedadDifMun MUN_LITERAL  PROV_LITERAL CMUN 
             <dbl> <chr>        <chr>        <chr>
 1            32.3 <=2000       Lugo         991  
 2            26.3 Nerja        Málaga       075  
 3            22.4 <=2000       Jaén         991  
 4            21.3 <=2000       Coruña, A    991  
 5            20.1 2001 <= 5000 Lugo         992  
 6            20.0 <=2000       Málaga       991  
 7            18.9 Úbeda        Jaén         092  
 8            18.7 2001 <= 5000 Huesca       992  
 9            18.4 <=2000       Teruel       991  
10            17.2 <=2000       Ourense      991  
# ℹ 519 more rows

# Alquiler
compra_total_mun <- compra_total_mun |> 
  mutate(
    AlquilerDifMun = Alquiler21Mun - Alquiler11Mun)

compra_total_mun %>%
    distinct(AlquilerDifMun, .keep_all = TRUE) |> 
  arrange(desc(AlquilerDifMun)) %>%
    select(AlquilerDifMun, MUN_LITERAL, PROV_LITERAL, CMUN)

# A tibble: 529 × 4
   AlquilerDifMun MUN_LITERAL       PROV_LITERAL      CMUN 
            <dbl> <chr>             <chr>             <chr>
 1           37.2 2001 <= 5000      Araba/Álava       992  
 2           35.2 <=2000            Araba/Álava       991  
 3           34.5 Alfafar           Valencia/València 022  
 4           33.2 Mollet del Vallès Barcelona         124  
 5           31.6 Catarroja         Valencia/València 094  
 6           30.0 Alaquàs           Valencia/València 005  
 7           29.8 Ponferrada        León              115  
 8           29.4 Picassent         Valencia/València 194  
 9           27.0 Valdemoro         Madrid            161  
10           26.3 <=2000            Gipuzkoa          991  
# ℹ 519 more rows

# Otro
compra_total_mun <- compra_total_mun |> 
  mutate(
    OtroDifProv = Otro21Mun - Otro11Mun)

compra_total_mun %>%
    distinct(OtroDifProv, .keep_all = TRUE) |> 
  arrange(desc(OtroDifProv)) %>%
    select(OtroDifProv, MUN_LITERAL, PROV_LITERAL, CMUN)

# A tibble: 507 × 4
   OtroDifProv MUN_LITERAL             PROV_LITERAL CMUN 
         <dbl> <chr>                   <chr>        <chr>
 1        26.7 Oleiros                 Coruña, A    058  
 2        23.7 Teguise                 Palmas, Las  024  
 3        22.7 5001 <= 10000           Teruel       993  
 4        20.0 Estrada, A              Pontevedra   017  
 5        18.8 <=2000                  Palmas, Las  991  
 6        18.8 2001 <= 5000            Zamora       992  
 7        17.7 Castro-Urdiales         Cantabria    020  
 8        17.4 Don Benito              Badajoz      044  
 9        17.3 Villanueva de la Serena Badajoz      153  
10        16.1 Almansa                 Albacete     009  
# ℹ 497 more rows
…
